<?xml version="1.0" encoding="UTF-8"?>
<model ref="r:60b0c44c-2d14-46e8-aa18-cafa1ffe24e8(Processing.__spreferences.CodeReviewPreferences)">
  <persistence version="9" />
  <languages />
  <imports />
  <registry>
    <language id="d4280a54-f6df-4383-aa41-d1b2bffa7eb1" name="com.mbeddr.core.base">
      <concept id="293752265167076767" name="com.mbeddr.core.base.structure.CodeReviewConfig" flags="ng" index="3Xb6eZ" />
    </language>
  </registry>
  <node concept="3Xb6eZ" id="2yiuz3qpRiw" />
</model>

